16 Community Ecology – From questions to data to answers using R
…
This is nice for us to read, but not the best for analysis. It is not ‘tidy’. Each of the habitats surveyed is really a different level of the single variable ‘habitat’. Hence, this variable is appearing across five columns. A tidy data set has any variable appear only once in any one row. When this is the case, analysis becomes much easier. We can tidy this data set using the command pivot_longer(), which we use here to produce a new version of the data set called tidy.bird, in which we have just two columns, habitat and abundance. This data set is tidy.

Note that tidy data sets tend to be longer and thinner than untidy data sets, with more rows and fewer columns.

In the chunk below, we start with the data frame bird, tidy it, then write the result into an object called tidy.bird.

tidy.bird<- bird |>
  pivot_longer(Garden:Woodland,names_to="habitat",values_to="abundance") |>
  arrange(habitat) # sort in order of habitat name

tidy.bird # have a look at it

# A tibble: 30 × 3
   Species       habitat  abundance
   <chr>         <chr>        <dbl>
 1 Blackbird     Garden          47
 2 Chaffinch     Garden          19
 3 Great Tit     Garden          50
 4 House Sparrow Garden          46
 5 Robin         Garden           9
 6 Song Thrush   Garden           4
 7 Blackbird     Hedgerow        10
 8 Chaffinch     Hedgerow         3
 9 Great Tit     Hedgerow         0
10 House Sparrow Hedgerow        16
# ℹ 20 more rows
…
